# This file uses centimeters as units for non-parametric coordinates.

mtllib Tree02.mtl
g default
v 0.129910 -0.000000 0.107709
v 0.072633 0.553783 0.050434
v -0.126653 0.553783 0.050434
v -0.183927 -0.000000 0.107709
v 0.129910 -0.000000 -0.206125
v 0.072633 0.553783 -0.148851
v -0.183927 -0.000000 -0.206125
v -0.126653 0.553783 -0.148851
v -0.362683 0.553783 0.532195
v 0.308660 0.553783 0.532195
v 0.308660 0.553783 -0.630610
v -0.362683 0.553783 -0.630610
v -0.698356 0.553783 -0.049208
v -0.457360 0.907183 0.696180
v -0.887710 0.907183 -0.049208
v 0.403340 0.907183 0.696180
v 0.833690 0.907183 -0.049208
v 0.644340 0.553783 -0.049208
v 0.635730 2.149780 -0.049208
v 0.304360 2.149780 0.524741
v 0.403340 0.907183 -0.794600
v 0.304360 2.149780 -0.623160
v -0.457360 0.907183 -0.794600
v -0.689749 2.149780 -0.049208
v -0.358379 2.149780 -0.623160
v -0.027010 2.622880 -0.049208
v -0.358379 2.149780 0.524741
v -0.027010 2.149780 -0.049208
vt 1.017620 0.060539
vt 0.960343 0.617277
vt 0.761057 0.617277
vt 0.703783 0.060539
vt 0.588471 -0.104688
vt 0.902305 -0.104688
vt 0.845031 0.452049
vt 0.645746 0.452049
vt -0.703783 0.588471
vt -0.703783 0.902305
vt -1.017620 0.902305
vt -1.017620 0.588471
vt -0.588471 0.072402
vt -0.645746 0.629140
vt -0.845031 0.629140
vt -0.902305 0.072402
vt -0.761057 0.645746
vt -0.525027 0.163985
vt -0.761057 0.845031
vt -1.196370 0.163985
vt -0.960343 0.645746
vt 0.960343 0.645746
vt 0.960343 0.845031
vt 0.761057 0.845031
vt 0.761057 0.645746
vt -0.960343 0.845031
vt -1.196370 1.326790
vt -0.525027 1.326790
vt -0.189354 0.745388
vt -0.550848 0.276441
vt 0.120498 0.276441
vt 0.215175 0.666034
vt -0.645525 0.666034
vt 0.430350 0.822906
vt 0.525027 0.433313
vt 1.196370 0.433313
vt 1.291050 0.822906
vt 1.506230 1.293520
vt 0.645525 1.293520
vt 0.740202 0.903930
vt 1.411550 0.903930
vt 0.645525 0.745858
vt 1.506230 0.745858
vt 1.407240 2.000230
vt 0.744506 2.000230
vt -0.215175 0.643984
vt 0.645525 0.643984
vt 0.546545 1.898350
vt -0.116195 1.898350
vt 0.645525 1.607270
vt -0.215175 1.607270
vt -0.120498 1.217670
vt 0.550848 1.217670
vt -1.532050 0.745388
vt -1.291050 1.450400
vt -1.196370 1.060800
vt -0.525027 1.060800
vt -0.430350 1.450400
vt -1.411550 0.590186
vt -0.740202 0.590186
vt -0.645525 0.979779
vt -1.506230 0.979779
vt -0.744506 2.102100
vt -1.407240 2.102100
vt -1.506230 0.847733
vt -0.645525 0.847733
vt -0.744506 1.212090
vt -1.075880 1.955890
vt -1.407240 1.212090
vt 0.116195 1.787260
vt -0.215175 2.531060
vt -0.546545 1.787260
vt 1.075880 2.622880
vt 0.413136 2.149780
vt 1.075880 2.149780
vt 1.192070 1.499670
vt 0.860700 2.243480
vt 0.529331 1.499670
vt 1.407240 0.636915
vt 1.075880 1.380720
vt 0.744506 0.636915
vt 0.546545 0.061742
vt 0.215175 0.805543
vt -0.116195 0.061742
vt 1.738610 2.149780
vt -0.860700 1.093130
vt -1.192070 0.349328
vt -0.529331 0.349328
vt 0.197961 0.745388
vt 0.529331 0.171439
vt 0.860700 0.745388
vt 1.192070 1.319340
vt 0.529331 1.319340
vt 0.116195 2.203980
vt -0.546545 2.203980
vt -0.645525 0.949608
vt 0.215175 0.949608
vt 1.291050 0.898671
vt 1.192070 2.153040
vt 0.529331 2.153040
vt 0.430350 0.898671
vt 1.523440 0.745388
vt 1.192070 0.171439
vt -0.430350 0.694921
vt -0.529331 1.949290
vt -1.192070 1.949290
vt -1.291050 0.694921
vt -0.703783 -0.092825
vt -0.761057 0.463912
vt -0.960343 0.463912
vt -1.017620 -0.092825
vn -0.000000 0.102876 0.994694
vn -0.000000 0.102876 0.994694
vn -0.000000 0.102876 0.994694
vn -0.000000 0.102876 0.994694
vn 0.994694 0.102876 0.000000
vn 0.994694 0.102876 0.000000
vn 0.994694 0.102876 0.000000
vn 0.994694 0.102876 0.000000
vn 0.000000 -1.000000 0.000000
vn 0.000000 -1.000000 0.000000
vn 0.000000 -1.000000 0.000000
vn 0.000000 -1.000000 0.000000
vn -0.994694 0.102876 0.000000
vn -0.994694 0.102876 0.000000
vn -0.994694 0.102876 0.000000
vn -0.994694 0.102876 0.000000
vn 0.000000 -1.000000 0.000000
vn 0.000000 -1.000000 0.000000
vn 0.000000 -1.000000 0.000000
vn 0.000000 -1.000000 0.000000
vn 0.000000 -1.000000 0.000000
vn 0.000000 -1.000000 0.000000
vn 0.000000 -1.000000 0.000000
vn 0.000000 -1.000000 0.000000
vn 0.000000 -1.000000 0.000000
vn 0.000000 1.000000 0.000000
vn 0.000000 1.000000 0.000000
vn 0.000000 1.000000 0.000000
vn 0.000000 1.000000 0.000000
vn 0.000000 -1.000000 0.000000
vn 0.000000 -1.000000 0.000000
vn 0.000000 -1.000000 0.000000
vn 0.000000 -1.000000 0.000000
vn 0.000000 -1.000000 0.000000
vn 0.000000 -1.000000 0.000000
vn 0.000000 -1.000000 0.000000
vn 0.000000 -1.000000 0.000000
vn 0.000000 -1.000000 0.000000
vn 0.000000 -1.000000 0.000000
vn 0.000000 -1.000000 0.000000
vn 0.000000 -1.000000 0.000000
vn 0.000000 -1.000000 0.000000
vn 0.000000 -1.000000 0.000000
vn 0.000000 -1.000000 0.000000
vn -0.785572 -0.420915 0.453550
vn -0.785572 -0.420915 0.453550
vn -0.785572 -0.420915 0.453550
vn -0.785572 -0.420915 0.453550
vn -0.000000 -0.420915 0.907100
vn -0.000000 -0.420915 0.907100
vn -0.000000 -0.420915 0.907100
vn -0.000000 -0.420915 0.907100
vn 0.785572 -0.420915 0.453550
vn 0.785572 -0.420915 0.453550
vn 0.785572 -0.420915 0.453550
vn 0.785572 -0.420915 0.453550
vn 0.857899 0.136674 0.495308
vn 0.857899 0.136674 0.495308
vn 0.857899 0.136674 0.495308
vn 0.857899 0.136674 0.495308
vn 0.857899 0.136674 -0.495308
vn 0.857899 0.136674 -0.495308
vn 0.857899 0.136674 -0.495308
vn 0.857899 0.136674 -0.495308
vn 0.785572 -0.420915 -0.453550
vn 0.785572 -0.420915 -0.453550
vn 0.785572 -0.420915 -0.453550
vn 0.785572 -0.420915 -0.453550
vn 0.000000 -1.000000 0.000000
vn 0.000000 -1.000000 0.000000
vn 0.000000 -1.000000 0.000000
vn 0.000000 -1.000000 0.000000
vn 0.000000 -1.000000 0.000000
vn 0.000000 -1.000000 0.000000
vn 0.000000 -0.420915 -0.907100
vn 0.000000 -0.420915 -0.907100
vn 0.000000 -0.420915 -0.907100
vn 0.000000 -0.420915 -0.907100
vn -0.785572 -0.420915 -0.453550
vn -0.785572 -0.420915 -0.453550
vn -0.785572 -0.420915 -0.453550
vn -0.785572 -0.420915 -0.453550
vn -0.857899 0.136674 -0.495308
vn -0.857899 0.136674 -0.495308
vn -0.857899 0.136674 -0.495308
vn -0.857899 0.136674 -0.495308
vn -0.550841 0.771643 -0.318028
vn -0.550841 0.771643 -0.318028
vn -0.550841 0.771643 -0.318028
vn -0.550841 0.771643 0.318028
vn -0.550841 0.771643 0.318028
vn -0.550841 0.771643 0.318028
vn 0.866025 -0.000000 0.500000
vn 0.866025 -0.000000 0.500000
vn 0.866025 -0.000000 0.500000
vn -0.000000 0.771642 0.636057
vn -0.000000 0.771642 0.636057
vn -0.000000 0.771642 0.636057
vn 0.550841 0.771643 0.318028
vn 0.550841 0.771643 0.318028
vn 0.550841 0.771643 0.318028
vn 0.550841 0.771643 -0.318028
vn 0.550841 0.771643 -0.318028
vn 0.550841 0.771643 -0.318028
vn 0.866025 -0.000000 0.500000
vn 0.866025 -0.000000 0.500000
vn 0.866025 -0.000000 0.500000
vn 0.000000 0.771642 -0.636057
vn 0.000000 0.771642 -0.636057
vn 0.000000 0.771642 -0.636057
vn 0.000000 1.000000 0.000000
vn 0.000000 1.000000 0.000000
vn 0.000000 1.000000 0.000000
vn 0.000000 1.000000 0.000000
vn 0.000000 1.000000 0.000000
vn -0.857899 0.136674 0.495308
vn -0.857899 0.136674 0.495308
vn -0.857899 0.136674 0.495308
vn -0.857899 0.136674 0.495308
vn -0.000000 0.136674 0.990616
vn -0.000000 0.136674 0.990616
vn -0.000000 0.136674 0.990616
vn -0.000000 0.136674 0.990616
vn 0.000000 1.000000 0.000000
vn 0.000000 1.000000 0.000000
vn 0.000000 1.000000 0.000000
vn 0.000000 1.000000 0.000000
vn 0.000000 1.000000 0.000000
vn 0.000000 0.136674 -0.990616
vn 0.000000 0.136674 -0.990616
vn 0.000000 0.136674 -0.990616
vn 0.000000 0.136674 -0.990616
vn -0.000000 0.102876 -0.994694
vn -0.000000 0.102876 -0.994694
vn -0.000000 0.102876 -0.994694
vn -0.000000 0.102876 -0.994694
s off
g Group1 Mesh1 Model polySurface1
usemtl Alternate_Dirt
f 1/1/1 2/2/2 3/3/3 4/4/4
f 1/5/5 5/6/6 6/7/7 2/8/8
f 4/9/9 7/10/10 5/11/11 1/12/12
f 4/13/13 3/14/14 8/15/15 7/16/16
usemtl Grass
f 3/17/17 9/18/18 8/19/19
f 9/18/20 3/17/21 10/20/22
f 10/20/23 3/17/24 2/21/25
f 2/22/26 6/23/27 8/24/28 3/25/29
f 6/26/30 11/27/31 2/21/32
f 8/19/33 11/27/34 6/26/35
f 8/19/36 12/28/37 11/27/38
f 9/18/39 12/28/40 8/19/41
f 12/28/42 9/18/43 13/29/44
f 13/30/45 9/31/46 14/32/47 15/33/48
f 14/34/49 9/35/50 10/36/51 16/37/52
f 17/38/53 16/39/54 10/40/55 18/41/56
f 16/42/57 17/43/58 19/44/59 20/45/60
f 17/46/61 21/47/62 22/48/63 19/49/64
f 21/50/65 17/51/66 18/52/67 11/53/68
f 10/20/69 11/27/70 18/54/71
f 10/20/72 2/21/73 11/27/74
f 21/55/75 11/56/76 12/57/77 23/58/78
f 12/59/79 13/60/80 15/61/81 23/62/82
f 24/63/83 25/64/84 23/65/85 15/66/86
f 24/67/87 26/68/88 25/69/89
f 27/70/90 26/71/91 24/72/92
f 26/73/93 27/74/94 28/75/95
f 20/76/96 26/77/97 27/78/98
f 19/79/99 26/80/100 20/81/101
f 22/82/102 26/83/103 19/84/104
f 22/85/105 26/73/106 28/75/107
f 26/86/108 22/87/109 25/88/110
f 24/89/111 27/90/112 28/91/113 22/92/114 25/93/115
f 27/94/116 24/95/117 15/96/118 14/97/119
f 16/98/120 20/99/121 27/100/122 14/101/123
f 19/102/124 22/92/125 28/91/126 27/90/127 20/103/128
f 23/104/129 25/105/130 22/106/131 21/107/132
usemtl Alternate_Dirt
f 7/108/133 8/109/134 6/110/135 5/111/136
